%YAML 1.1
%TAG !u! tag:unity3d.com,2011:
--- !u!114 &11400000
MonoBehaviour:
  m_ObjectHideFlags: 0
  m_CorrespondingSourceObject: {fileID: 0}
  m_PrefabInstance: {fileID: 0}
  m_PrefabAsset: {fileID: 0}
  m_GameObject: {fileID: 0}
  m_Enabled: 1
  m_EditorHideFlags: 0
  m_Script: {fileID: 11500000, guid: a7e746ca47ed749148f290a41846bcdd, type: 3}
  m_Name: Data
  m_EditorClassIdentifier: 
  levelDatas:
  - blueSpawn: 2
    purpleSpawn: 2
    orangeSpawn: 2
    blueTarget: 2
    purpleTarget: 2
    orangeTarget: 0
  - blueSpawn: 3
    purpleSpawn: 2
    orangeSpawn: 3
    blueTarget: 3
    purpleTarget: 1
    orangeTarget: 1
  - blueSpawn: 3
    purpleSpawn: 3
    orangeSpawn: 3
    blueTarget: 3
    purpleTarget: 3
    orangeTarget: 3
  - blueSpawn: 3
    purpleSpawn: 4
    orangeSpawn: 3
    blueTarget: 5
    purpleTarget: 4
    orangeTarget: 3
  - blueSpawn: 4
    purpleSpawn: 4
    orangeSpawn: 4
    blueTarget: 5
    purpleTarget: 5
    orangeTarget: 4
